{
    "projects": [
        {
            "name": "Mixcloud Favorites Front End",
            "id": "mixcloudFavoritesClient",
            "description": "An SPA I made to display recent shows of my favorite djs. I also used this opportunity to learn Apollo graphql",
            "url": "https://github.com/jonwalz/mixcloud_favorites_frontend",
            "image_url": "/files/mixcloud_frontend.png"
        },
        {
            "name": "Mixcloud Favorites Server",
            "id": "mixcloudFavoritesServer",
            "description": "The apollo graphql server I created to serve and save liked djs on a firebase database.",
            "url": "https://github.com/jonwalz/mixcloud_graphql",
            "image_url": "/files/mixcloud_frontend.png"
        },
        {
            "name": "Theatre Showtime App",
            "id": "theatreShowtimes",
            "description": "A small single page web app to search for movies times within a given zip code",
            "url": "https://github.com/jonwalz/theatreTimes",
            "image_url": "/files/theatre.png"
        },
        {
            "name": "Starting Point",
            "id": "startingPoint",
            "description": "A twitter scraping app created for my course work at code fellows. Displays tweets within the portland area with specific tags",
            "url": "",
            "image_url": "/files/starting_point.png"
        },
        {
            "name": "Older porfolio site",
            "id": "oldPortfolil",
            "description": "My older portfolio site. Something I was proud of a few years ago",
            "url": "./files/Jonathanwalz/index.html",
            "image_url": "/files/old_site.png"
        }
    ]
}